%YAML 1.1
%TAG !u! tag:unity3d.com,2011:
--- !u!21 &2100000
Material:
  serializedVersion: 6
  m_ObjectHideFlags: 0
  m_PrefabParentObject: {fileID: 0}
  m_PrefabInternal: {fileID: 0}
  m_Name: TreeTrunk01_00
  m_Shader: {fileID: 4800000, guid: 02143495406a2c34d8ffbb7175b730ea, type: 3}
  m_ShaderKeywords: _METALALPHAGLOSS_ON _METALLICGLOSSMAP _NORMALMAP _USEALPHA_ON
  m_LightmapFlags: 5
  m_EnableInstancingVariants: 0
  m_DoubleSidedGI: 0
  m_CustomRenderQueue: -1
  stringTagMap: {}
  disabledShaderPasses: []
  m_SavedProperties:
    serializedVersion: 3
    m_TexEnvs:
    - _BumpMap:
        m_Texture: {fileID: 2800000, guid: daf0757913726ab448340820ef06d515, type: 3}
        m_Scale: {x: 1, y: 1}
        m_Offset: {x: 0, y: 0}
    - _DetailAlbedoMap:
        m_Texture: {fileID: 2800000, guid: 2974f409bf4c2f846bebb6c255779c3b, type: 3}
        m_Scale: {x: 1, y: 1}
        m_Offset: {x: 0, y: 0}
    - _DetailMask:
        m_Texture: {fileID: 0}
        m_Scale: {x: 1, y: 1}
        m_Offset: {x: 0, y: 0}
    - _DetailNormalMap:
        m_Texture: {fileID: 2800000, guid: cd74ec2de2e6ebc4a8504ab5f6800e10, type: 3}
        m_Scale: {x: 1, y: 1}
        m_Offset: {x: 0, y: 0}
    - _EmissionMap:
        m_Texture: {fileID: 0}
        m_Scale: {x: 1, y: 1}
        m_Offset: {x: 0, y: 0}
    - _MainTex:
        m_Texture: {fileID: 2800000, guid: e58fa82e7ca258247a519afda3e41d16, type: 3}
        m_Scale: {x: 1, y: 1}
        m_Offset: {x: 0, y: 0}
    - _MetallicGlossMap:
        m_Texture: {fileID: 2800000, guid: 895c5d021eb5a754990bfd578bbd3048, type: 3}
        m_Scale: {x: 1, y: 1}
        m_Offset: {x: 0, y: 0}
    - _OcclusionMap:
        m_Texture: {fileID: 2800000, guid: cbae4548047f84e4592ee0b27591a0eb, type: 3}
        m_Scale: {x: 1, y: 1}
        m_Offset: {x: 0, y: 0}
    - _OpacityMap:
        m_Texture: {fileID: 0}
        m_Scale: {x: 1, y: 1}
        m_Offset: {x: 0, y: 0}
    - _ParallaxMap:
        m_Texture: {fileID: 0}
        m_Scale: {x: 1, y: 1}
        m_Offset: {x: 0, y: 0}
    - _SmoothnessMap:
        m_Texture: {fileID: 0}
        m_Scale: {x: 1, y: 1}
        m_Offset: {x: 0, y: 0}
    - _TopDetail:
        m_Texture: {fileID: 2800000, guid: 46c5d501aa7e1344f8546af254ec3c5e, type: 3}
        m_Scale: {x: 1, y: 1}
        m_Offset: {x: 0, y: 0}
    - _TopNormal:
        m_Texture: {fileID: 2800000, guid: 1d91536ef319a6546b8e0a0f03e2dcc4, type: 3}
        m_Scale: {x: 1, y: 1}
        m_Offset: {x: 0, y: 0}
    m_Floats:
    - _AffectAO: 0.49
    - _BumpScale: 1
    - _Cutoff: 0.5
    - _DetailAffected: 3.33
    - _DetailNormalMapScale: 1
    - _DetailTiling: 10
    - _DiffuseAOMask: 0.47
    - _DstBlend: 0
    - _EmissionLM: 0
    - _Fresnel: 1.53
    - _Glossiness: 1
    - _InvertAOMask: 0
    - _InvertTopBottom: 0
    - _LightWrap: 0
    - _MetalAlphaGloss: 1
    - _Metallic: 0
    - _Mode: 0
    - _OcclusionStrenght: 1
    - _OcclusionStrength: 1
    - _Parallax: 0.02
    - _RimPower: 1
    - _SrcBlend: 1
    - _TopBottomBumpScale: 1
    - _TopBottomMult: 4.64
    - _TopBottomPower: 0.48
    - _TopMetallic: 0
    - _TopSmoothness: 0
    - _UVSec: 0
    - _UseAlpha: 1
    - _ZWrite: 1
    m_Colors:
    - _Color: {r: 0.71323526, g: 0.678514, b: 0.6345696, a: 1}
    - _EmissionColor: {r: 0, g: 0, b: 0, a: 1}
    - _LightWarpTint: {r: 0.5, g: 0.5, b: 0.5, a: 1}
    - _RimColor: {r: 0.7647059, g: 0.26989618, b: 0.6486815, a: 1}
    - _TopTint: {r: 1, g: 1, b: 1, a: 1}
